module gitlab.com/julianthome/lingo-example

go 1.18

require gitlab.com/gitlab-org/vulnerability-research/foss/lingo v0.6.0

require (
	github.com/mattn/go-runewidth v0.0.13 // indirect
	github.com/olekukonko/tablewriter v0.0.5 // indirect
	github.com/rivo/uniseg v0.2.0 // indirect
)
